####
#
# OBJ File Generated by Meshlab
#
####
# Object CatStapler.obj
#
# Vertices: 37
# Faces: 74
#
####
mtllib ./CatStapler.obj.mtl

vn -1.872265 -1.667212 -0.937872
v 1.300000 2.000000 -0.400000 1.000000 1.000000 1.000000
vn -1.199507 1.048604 1.121760
v 1.300000 3.400000 0.000000 1.000000 1.000000 1.000000
vn -0.466367 1.645259 -1.736019
v 1.700000 3.400000 -0.700000 1.000000 1.000000 1.000000
vn -2.606159 -3.525491 -1.513147
v 1.728571 2.000000 -0.660000 1.000000 1.000000 1.000000
vn -2.017380 1.666874 -3.502498
v 1.800000 3.300000 -0.700000 1.000000 1.000000 1.000000
vn -1.544516 -1.730227 -1.854331
v 1.900000 2.000000 -1.900000 1.000000 1.000000 1.000000
vn -0.080564 1.792735 2.924425
v 1.900000 3.401786 0.000000 1.000000 1.000000 1.000000
vn 0.971076 0.383638 6.025142
v 2.500000 3.200000 -0.040000 1.000000 1.000000 1.000000
vn 0.015147 2.288108 3.004697
v 2.100000 3.411765 0.000000 1.000000 1.000000 1.000000
vn 2.732852 3.657148 -1.459492
v 2.262500 3.400000 -0.660000 1.000000 1.000000 1.000000
vn 1.803530 -3.446880 -2.515867
v 2.425000 2.000000 -0.528571 1.000000 1.000000 1.000000
vn -0.875510 -0.881604 2.148652
v 1.400000 2.100000 0.000000 1.000000 1.000000 1.000000
vn 0.992599 -0.939045 5.778615
v 1.500000 3.200000 -0.085714 1.000000 1.000000 1.000000
vn -2.310060 3.568763 -2.016983
v 1.637500 3.400000 -0.575000 1.000000 1.000000 1.000000
vn -2.723903 1.731743 -4.427148
v 1.800000 2.300000 -0.700000 1.000000 1.000000 1.000000
vn 2.418663 -1.701172 -4.483967
v 2.200000 3.100000 -0.700000 1.000000 1.000000 1.000000
vn -4.671694 1.675516 0.981612
v 1.850000 2.300000 -1.600000 1.000000 1.000000 1.000000
vn -4.330183 -1.268898 0.196203
v 1.840000 3.100000 -1.600000 1.000000 1.000000 1.000000
vn 4.958394 2.973483 -1.310253
v 2.100000 3.400000 -1.600000 1.000000 1.000000 1.000000
vn 1.212180 -1.222211 1.510683
v 2.700000 2.000000 0.000000 1.000000 1.000000 1.000000
vn 2.214527 -1.944709 -1.430313
v 2.700000 2.000000 -0.400000 1.000000 1.000000 1.000000
vn -1.608178 -3.599095 -2.603346
v 1.550000 2.000000 -0.483333 1.000000 1.000000 1.000000
vn 2.650546 -3.454780 -1.457240
v 2.260000 2.000000 -0.700000 1.000000 1.000000 1.000000
vn -3.100955 -2.898449 -0.413842
v 1.840000 2.000000 -1.600000 1.000000 1.000000 1.000000
vn 3.116149 -3.034237 -0.366553
v 2.150000 2.000000 -1.600000 1.000000 1.000000 1.000000
vn 1.550568 -1.689601 -1.816201
v 2.100000 2.000000 -1.900000 1.000000 1.000000 1.000000
vn 4.391891 -2.498600 0.845315
v 2.100000 3.100000 -1.600000 1.000000 1.000000 1.000000
vn 2.726393 -0.047154 -2.318693
v 2.200000 3.250000 -1.600000 1.000000 1.000000 1.000000
vn -1.152229 0.971419 5.551758
v 2.500000 2.200000 -0.100000 1.000000 1.000000 1.000000
vn 1.469760 1.447057 3.165426
v 1.500000 2.200000 -0.200000 1.000000 1.000000 1.000000
vn 1.554168 1.761972 -4.683561
v 2.200000 2.300000 -0.700000 1.000000 1.000000 1.000000
vn 4.623814 1.768416 0.769881
v 2.150000 2.300000 -1.600000 1.000000 1.000000 1.000000
vn 1.894717 1.573738 0.653015
v 2.700000 3.400000 -0.133333 1.000000 1.000000 1.000000
vn -2.347126 2.597926 -1.872081
v 1.442857 3.400000 -0.440000 1.000000 1.000000 1.000000
vn 2.337184 3.124433 -2.172376
v 2.450000 3.400000 -0.483333 1.000000 1.000000 1.000000
vn -4.825045 2.468475 -0.817806
v 1.866667 3.400000 -1.600000 1.000000 1.000000 1.000000
vn 0.043616 0.872221 -0.978632
v 2.000000 3.500000 -1.900000 1.000000 1.000000 1.000000
# 37 vertices, 0 vertices normals


usemtl material_0
vt 0.013672 0.500000
f 2/1/2 1/1/1 12/1/12
f 34/1/34 1/1/1 2/1/2
f 3/1/3 4/1/4 14/1/14
f 15/1/15 24/1/24 4/1/4
f 17/1/17 24/1/24 15/1/15
f 36/1/36 18/1/18 5/1/5
vt 0.947266 0.500000
f 17/2/17 6/2/6 24/2/24
f 18/2/18 6/2/6 17/2/17
f 36/2/36 6/2/6 18/2/18
f 37/2/37 6/2/6 36/2/36
f 37/2/37 36/2/36 7/2/7
f 12/1/12 30/1/30 13/1/13
f 25/2/25 26/2/26 32/2/32
f 32/2/32 26/2/26 27/2/27
f 27/2/27 26/2/26 19/2/19
f 19/2/19 26/2/26 37/2/37
f 9/2/9 19/2/19 37/2/37
f 23/1/23 25/1/25 31/1/31
f 31/1/31 25/1/25 32/1/32
f 16/1/16 28/1/28 10/1/10
f 11/1/11 23/1/23 10/1/10
f 20/1/20 21/1/21 33/1/33
f 13/1/13 2/1/2 12/1/12
f 7/1/7 2/1/2 13/1/13
f 9/1/9 7/1/7 13/1/13
f 8/1/8 9/1/9 13/1/13
f 20/1/20 29/1/29 12/1/12
f 20/1/20 8/1/8 29/1/29
f 33/1/33 9/1/9 8/1/8
f 33/1/33 8/1/8 20/1/20
vt 0.994141 0.500000
f 29/3/29 13/3/13 30/3/30
f 8/3/8 13/3/13 29/3/29
f 32/2/32 18/2/18 17/2/17
f 27/2/27 18/2/18 32/2/32
f 1/1/1 34/1/34 22/1/22
f 11/1/11 35/1/35 21/1/21
f 21/1/21 35/1/35 33/1/33
f 22/1/22 34/1/34 14/1/14
f 22/1/22 14/1/14 4/1/4
f 11/1/11 10/1/10 35/1/35
f 4/1/4 3/1/3 15/1/15
f 15/1/15 3/1/3 5/1/5
f 15/1/15 5/1/5 31/1/31
f 31/1/31 5/1/5 16/1/16
f 16/1/16 10/1/10 23/1/23
f 31/1/31 16/1/16 23/1/23
f 27/1/27 19/1/19 28/1/28
f 6/2/6 37/2/37 26/2/26
f 1/1/1 20/1/20 12/1/12
f 22/1/22 20/1/20 1/1/1
f 11/1/11 20/1/20 22/1/22
f 21/1/21 20/1/20 11/1/11
f 4/1/4 11/1/11 22/1/22
f 23/1/23 11/1/11 4/1/4
f 24/1/24 23/1/23 4/1/4
f 25/1/25 23/1/23 24/1/24
f 6/2/6 25/2/25 24/2/24
f 26/2/26 25/2/25 6/2/6
f 18/1/18 16/1/16 5/1/5
f 27/1/27 16/1/16 18/1/18
f 28/1/28 16/1/16 27/1/27
f 12/1/12 29/1/29 30/1/30
f 15/1/15 31/1/31 17/1/17
f 17/1/17 31/1/31 32/1/32
f 2/1/2 7/1/7 34/1/34
f 9/1/9 33/1/33 35/1/35
f 34/1/34 7/1/7 14/1/14
f 9/1/9 35/1/35 10/1/10
f 14/1/14 7/1/7 3/1/3
f 3/1/3 7/1/7 5/1/5
f 5/1/5 7/1/7 36/1/36
f 9/1/9 10/1/10 19/1/19
f 19/1/19 10/1/10 28/1/28
f 7/2/7 9/2/9 37/2/37
# 74 faces, 3 coords texture

# End of File
