<?xml version="1.0" encoding="utf-8"?>
<COLLADA xmlns="http://www.collada.org/2005/11/COLLADASchema" version="1.4.1" xmlns:xsi="http://www.w3.org/2001/XMLSchema-instance">
  <asset>
    <contributor>
      <author>Blender User</author>
      <authoring_tool>Blender 2.81.16 commit date:2019-12-04, commit time:11:32, hash:f1aa4d18d49d</authoring_tool>
    </contributor>
    <created>2020-02-02T12:42:11</created>
    <modified>2020-02-02T12:42:11</modified>
    <unit name="meter" meter="1"/>
    <up_axis>Z_UP</up_axis>
  </asset>
  <library_cameras>
    <camera id="Camera-camera" name="Camera">
      <optics>
        <technique_common>
          <perspective>
            <xfov sid="xfov">39.59775</xfov>
            <aspect_ratio>1.777778</aspect_ratio>
            <znear sid="znear">0.1</znear>
            <zfar sid="zfar">100</zfar>
          </perspective>
        </technique_common>
      </optics>
      <extra>
        <technique profile="blender">
          <shiftx sid="shiftx" type="float">0</shiftx>
          <shifty sid="shifty" type="float">0</shifty>
          <dof_distance sid="dof_distance" type="float">10</dof_distance>
        </technique>
      </extra>
    </camera>
  </library_cameras>
  <library_lights>
    <light id="Light-light" name="Light">
      <technique_common>
        <point>
          <color sid="color">1000 1000 1000</color>
          <constant_attenuation>1</constant_attenuation>
          <linear_attenuation>0</linear_attenuation>
          <quadratic_attenuation>0.00111109</quadratic_attenuation>
        </point>
      </technique_common>
      <extra>
        <technique profile="blender">
          <type sid="type" type="int">0</type>
          <flag sid="flag" type="int">0</flag>
          <mode sid="mode" type="int">1</mode>
          <gamma sid="blender_gamma" type="float">1</gamma>
          <red sid="red" type="float">1</red>
          <green sid="green" type="float">1</green>
          <blue sid="blue" type="float">1</blue>
          <shadow_r sid="blender_shadow_r" type="float">0</shadow_r>
          <shadow_g sid="blender_shadow_g" type="float">0</shadow_g>
          <shadow_b sid="blender_shadow_b" type="float">0</shadow_b>
          <energy sid="blender_energy" type="float">1000</energy>
          <dist sid="blender_dist" type="float">29.99998</dist>
          <spotsize sid="spotsize" type="float">75</spotsize>
          <spotblend sid="spotblend" type="float">0.15</spotblend>
          <att1 sid="att1" type="float">0</att1>
          <att2 sid="att2" type="float">1</att2>
          <falloff_type sid="falloff_type" type="int">2</falloff_type>
          <clipsta sid="clipsta" type="float">0.04999995</clipsta>
          <clipend sid="clipend" type="float">30.002</clipend>
          <bias sid="bias" type="float">1</bias>
          <soft sid="soft" type="float">3</soft>
          <bufsize sid="bufsize" type="int">2880</bufsize>
          <samp sid="samp" type="int">3</samp>
          <buffers sid="buffers" type="int">1</buffers>
          <area_shape sid="area_shape" type="int">1</area_shape>
          <area_size sid="area_size" type="float">0.1</area_size>
          <area_sizey sid="area_sizey" type="float">0.1</area_sizey>
          <area_sizez sid="area_sizez" type="float">1</area_sizez>
        </technique>
      </extra>
    </light>
  </library_lights>
  <library_effects>
    <effect id="material-effect">
      <profile_COMMON>
        <technique sid="common">
          <lambert>
            <emission>
              <color sid="emission">0 0 0 1</color>
            </emission>
            <diffuse>
              <color sid="diffuse">1 1 1 1</color>
            </diffuse>
            <index_of_refraction>
              <float sid="ior">1.45</float>
            </index_of_refraction>
          </lambert>
        </technique>
      </profile_COMMON>
    </effect>
    <effect id="material_0-effect">
      <profile_COMMON>
        <technique sid="common">
          <lambert>
            <emission>
              <color sid="emission">0 0 0 1</color>
            </emission>
            <diffuse>
              <color sid="diffuse">0.6431373 0.6980392 0.7333333 1</color>
            </diffuse>
            <index_of_refraction>
              <float sid="ior">1.45</float>
            </index_of_refraction>
          </lambert>
        </technique>
      </profile_COMMON>
    </effect>
    <effect id="edge_color000255-effect">
      <profile_COMMON>
        <technique sid="common">
          <lambert>
            <emission>
              <color sid="emission">0 0 0 1</color>
            </emission>
            <diffuse>
              <color sid="diffuse">0.8 0.8 0.8 1</color>
            </diffuse>
            <index_of_refraction>
              <float sid="ior">1.45</float>
            </index_of_refraction>
          </lambert>
        </technique>
      </profile_COMMON>
    </effect>
  </library_effects>
  <library_images/>
  <library_materials>
    <material id="material-material" name="material">
      <instance_effect url="#material-effect"/>
    </material>
    <material id="material_0-material" name="material_0">
      <instance_effect url="#material_0-effect"/>
    </material>
    <material id="edge_color000255-material" name="edge_color000255">
      <instance_effect url="#edge_color000255-effect"/>
    </material>
  </library_materials>
  <library_geometries>
    <geometry id="ID2-mesh" name="ID2">
      <mesh>
        <source id="ID2-mesh-positions">
          <float_array id="ID2-mesh-positions-array" count="486">-29.55188 9.599482 13.48788 -37.4259 19.442 13.48788 -37.4259 9.599482 13.48788 41.31426 19.442 13.48788 33.44024 9.599482 13.48788 41.31426 9.599482 13.48788 41.31426 9.599482 13.48788 33.44024 9.599482 13.48788 41.31426 19.442 13.48788 -29.55188 9.599482 13.48788 -37.4259 19.442 13.48788 -37.4259 9.599482 13.48788 -37.4259 19.442 13.48788 -37.4259 9.599482 13.48788 -29.55188 9.599482 13.48788 33.44024 9.599482 13.48788 41.31426 9.599482 13.48788 41.31426 19.442 13.48788 -37.4259 19.442 13.48788 -37.4259 9.599482 3.645365 -37.4259 9.599482 13.48788 -37.4259 9.599482 -16.03968 -37.4259 19.442 -16.03968 -37.4259 19.442 -16.03968 -37.4259 19.442 13.48788 -37.4259 9.599482 -16.03968 -37.4259 9.599482 3.645365 -37.4259 9.599482 13.48788 -37.4259 19.442 -16.03968 -37.4259 9.599482 -16.03968 -37.4259 9.599482 3.645365 -29.55188 9.599482 13.48788 -37.4259 9.599482 3.645365 -29.55188 9.599482 3.645365 -37.4259 9.599482 13.48788 -37.4259 9.599482 13.48788 -29.55188 9.599482 13.48788 -37.4259 9.599482 3.645365 -29.55188 9.599482 3.645365 -29.55188 9.599482 3.645365 33.44024 9.599482 3.645365 -29.55188 9.599482 -6.197155 33.44024 9.599482 -6.197155 33.44024 9.599482 13.48788 33.44024 9.599482 13.48788 33.44024 9.599482 3.645365 -29.55188 9.599482 -6.197155 33.44024 9.599482 -6.197155 -29.55188 9.599482 -6.197155 33.44024 9.599482 -6.197155 33.44024 9.599482 3.645365 41.31426 9.599482 13.48788 41.31426 9.599482 3.645365 41.31426 9.599482 13.48788 41.31426 9.599482 3.645365 41.31426 9.599482 3.645365 41.31426 19.442 -16.03968 41.31426 9.599482 3.645365 41.31426 9.599482 -16.03968 41.31426 9.599482 13.48788 41.31426 19.442 13.48788 41.31426 19.442 13.48788 41.31426 19.442 -16.03968 41.31426 9.599482 13.48788 41.31426 9.599482 3.645365 41.31426 9.599482 -16.03968 41.31426 9.599482 -16.03968 41.31426 19.442 -16.03968 -37.4259 19.442 13.48788 41.31426 19.442 -16.03968 -37.4259 19.442 -16.03968 41.31426 19.442 13.48788 41.31426 19.442 13.48788 -37.4259 19.442 13.48788 41.31426 19.442 -16.03968 -37.4259 19.442 -16.03968 -37.4259 -0.2430381 -16.03968 -37.4259 -0.2430381 3.645365 -37.4259 -0.2430381 -16.03968 -37.4259 -0.2430381 3.645365 -37.4259 -0.2430381 -16.03968 -37.4259 -0.2430381 3.645365 -29.55188 -19.92808 3.645365 -37.4259 -0.2430381 3.645365 -37.4259 -19.92808 3.645365 -37.4259 9.599482 3.645365 -29.55188 9.599482 3.645365 -29.55188 9.599482 3.645365 -29.55188 -19.92808 3.645365 -37.4259 9.599482 3.645365 -37.4259 -0.2430381 3.645365 -37.4259 -19.92808 3.645365 -37.4259 -19.92808 3.645365 -29.55188 -19.92808 3.645365 -29.55188 9.599482 -6.197155 -29.55188 -19.92808 3.645365 -29.55188 -19.92808 -6.197155 -29.55188 9.599482 3.645365 -29.55188 9.599482 3.645365 -29.55188 9.599482 -6.197155 -29.55188 -19.92808 3.645365 -29.55188 -19.92808 -6.197155 -29.55188 -19.92808 -6.197155 33.44024 -19.92808 -6.197155 -29.55188 9.599482 -6.197155 -29.55188 -19.92808 -6.197155 33.44024 9.599482 -6.197155 33.44024 9.599482 -6.197155 33.44024 -19.92808 -6.197155 -29.55188 9.599482 -6.197155 -29.55188 -19.92808 -6.197155 33.44024 -19.92808 -6.197155 33.44024 9.599482 3.645365 33.44024 -19.92808 -6.197155 33.44024 -19.92808 3.645365 33.44024 9.599482 -6.197155 33.44024 9.599482 -6.197155 33.44024 9.599482 3.645365 33.44024 -19.92808 -6.197155 33.44024 -19.92808 3.645365 33.44024 -19.92808 3.645365 41.31426 -19.92808 3.645365 33.44024 9.599482 3.645365 33.44024 -19.92808 3.645365 41.31426 9.599482 3.645365 41.31426 9.599482 3.645365 41.31426 -19.92808 3.645365 33.44024 9.599482 3.645365 33.44024 -19.92808 3.645365 41.31426 -19.92808 3.645365 41.31426 -19.92808 3.645365 41.31426 -19.92808 -16.03968 41.31426 -19.92808 3.645365 41.31426 -19.92808 -16.03968 41.31426 -19.92808 -16.03968 -37.4259 -19.92808 -16.03968 -37.4259 -19.92808 3.645365 -37.4259 -19.92808 -16.03968 -37.4259 -19.92808 3.645365 -37.4259 -19.92808 -16.03968 -29.55188 -19.92808 -6.197155 -37.4259 -19.92808 -16.03968 -29.55188 -19.92808 -16.03968 -37.4259 -19.92808 3.645365 -29.55188 -19.92808 3.645365 -29.55188 -19.92808 3.645365 -29.55188 -19.92808 -6.197155 -37.4259 -19.92808 3.645365 -37.4259 -19.92808 -16.03968 -29.55188 -19.92808 -16.03968 -29.55188 -19.92808 -16.03968 33.44024 -19.92808 -6.197155 33.44024 -19.92808 -16.03968 33.44024 -19.92808 -6.197155 33.44024 -19.92808 -16.03968 33.44024 -19.92808 -16.03968 41.31426 -19.92808 3.645365 41.31426 -19.92808 -16.03968 33.44024 -19.92808 3.645365 33.44024 -19.92808 3.645365 41.31426 -19.92808 3.645365 41.31426 -19.92808 -16.03968</float_array>
          <technique_common>
            <accessor source="#ID2-mesh-positions-array" count="162" stride="3">
              <param name="X" type="float"/>
              <param name="Y" type="float"/>
              <param name="Z" type="float"/>
            </accessor>
          </technique_common>
        </source>
        <source id="ID2-mesh-normals">
          <float_array id="ID2-mesh-normals-array" count="30">0 0 1 -1 0 0 0 -1 0 1 0 0 0 1 0 -1.96887e-7 0 1 0 0 -1 1 3.1502e-7 0 -1 -1.26008e-6 0 1.96887e-7 0 -1</float_array>
          <technique_common>
            <accessor source="#ID2-mesh-normals-array" count="10" stride="3">
              <param name="X" type="float"/>
              <param name="Y" type="float"/>
              <param name="Z" type="float"/>
            </accessor>
          </technique_common>
        </source>
        <vertices id="ID2-mesh-vertices">
          <input semantic="POSITION" source="#ID2-mesh-positions"/>
        </vertices>
        <lines count="45">
          <input semantic="VERTEX" source="#ID2-mesh-vertices" offset="0"/>
          <p>13 12 14 13 15 14 16 15 17 16 12 17 29 28 30 29 13 30 12 28 39 30 14 39 39 48 49 48 50 49 15 50 55 50 16 55 67 66 17 67 55 66 28 67 80 29 81 80 81 30 93 92 39 93 92 81 93 102 48 102 111 102 49 111 120 111 50 120 129 120 55 129 66 134 129 134 139 80 92 139 150 139 102 150 155 150 111 155 134 155</p>
        </lines>
        <triangles material="material-material" count="45">
          <input semantic="VERTEX" source="#ID2-mesh-vertices" offset="0"/>
          <input semantic="NORMAL" source="#ID2-mesh-normals" offset="1"/>
          <p>0 0 1 0 2 0 1 0 0 0 3 0 3 0 0 0 4 0 3 0 4 0 5 0 18 1 19 1 20 1 19 1 18 1 21 1 21 1 18 1 22 1 31 2 32 2 33 2 32 2 31 2 34 2 40 2 41 2 42 2 41 2 40 2 33 2 33 2 40 2 43 2 33 2 43 2 31 2 51 2 40 2 52 2 40 2 51 2 43 2 56 3 57 3 58 3 57 3 56 3 59 3 59 3 56 3 60 3 68 4 69 4 70 4 69 4 68 4 71 4 19 1 76 1 77 1 76 1 19 1 21 1 82 0 83 0 84 0 83 5 82 5 85 5 85 0 82 0 86 0 94 3 95 3 96 3 95 3 94 3 97 3 103 0 104 0 105 0 104 0 103 0 106 0 112 1 113 1 114 1 113 1 112 1 115 1 121 0 122 0 123 0 122 0 121 0 124 0 58 3 130 3 131 3 130 3 58 3 57 3 77 1 135 1 136 1 135 1 77 1 76 1 140 2 141 2 142 2 141 2 140 2 143 2 143 2 140 2 144 2 151 2 142 2 152 2 142 2 151 2 140 2 156 2 152 2 157 2 152 2 156 2 151 2 151 2 156 2 158 2</p>
        </triangles>
        <triangles material="material_0-material" count="45">
          <input semantic="VERTEX" source="#ID2-mesh-vertices" offset="0"/>
          <input semantic="NORMAL" source="#ID2-mesh-normals" offset="1"/>
          <p>6 6 7 6 8 6 7 6 9 6 8 6 8 6 9 6 10 6 11 6 10 6 9 6 23 3 24 3 25 3 25 7 24 7 26 7 27 3 26 3 24 3 35 4 36 4 37 4 38 4 37 4 36 4 36 4 44 4 38 4 44 4 45 4 38 4 38 4 45 4 46 4 47 4 46 4 45 4 44 4 53 4 45 4 54 4 45 4 53 4 61 1 62 1 63 1 63 8 62 8 64 8 65 1 64 1 62 1 72 2 73 2 74 2 75 2 74 2 73 2 25 3 26 3 78 3 79 3 78 3 26 3 87 6 88 6 89 6 89 9 88 9 90 9 91 6 90 6 88 6 98 1 99 1 100 1 101 1 100 1 99 1 107 6 108 6 109 6 110 6 109 6 108 6 116 3 117 3 118 3 119 3 118 3 117 3 125 6 126 6 127 6 128 6 127 6 126 6 64 1 65 1 132 1 133 1 132 1 65 1 78 3 79 3 137 3 138 3 137 3 79 3 145 4 146 4 147 4 147 4 146 4 148 4 149 4 148 4 146 4 146 4 153 4 149 4 154 4 149 4 153 4 159 4 160 4 153 4 153 4 160 4 154 4 161 4 154 4 160 4</p>
        </triangles>
      </mesh>
    </geometry>
  </library_geometries>
  <library_visual_scenes>
    <visual_scene id="Scene" name="Scene">
      <node id="SketchUp" name="SketchUp" type="NODE">
        <matrix sid="transform">0.0254 0 0 0.9506178 0 0.0254 0 0.5061732 0 0 0.0254 0.4074077 0 0 0 1</matrix>
        <instance_geometry url="#ID2-mesh" name="SketchUp">
          <bind_material>
            <technique_common>
              <instance_material symbol="material-material" target="#material-material"/>
              <instance_material symbol="material_0-material" target="#material_0-material"/>
              <instance_material symbol="edge_color000255-material" target="#edge_color000255-material"/>
            </technique_common>
          </bind_material>
        </instance_geometry>
      </node>
      <node id="Camera" name="Camera" type="NODE">
        <matrix sid="transform">0.6859207 -0.3240135 0.6515582 7.358891 0.7276763 0.3054208 -0.6141704 -6.925791 0 0.8953956 0.4452714 4.958309 0 0 0 1</matrix>
        <instance_camera url="#Camera-camera"/>
      </node>
      <node id="Light" name="Light" type="NODE">
        <matrix sid="transform">-0.2908646 -0.7711008 0.5663932 4.076245 0.9551712 -0.1998834 0.2183912 1.005454 -0.05518906 0.6045247 0.7946723 5.903862 0 0 0 1</matrix>
        <instance_light url="#Light-light"/>
      </node>
    </visual_scene>
  </library_visual_scenes>
  <scene>
    <instance_visual_scene url="#Scene"/>
  </scene>
</COLLADA>